testbench/tb_sparse_decoder.vcd
$date
	Sat May 16 08:29:42 2026
$end
$version
	Icarus Verilog
$end
$timescale
	1ps
$end
$scope module tb_sparse_decoder $end
$var wire 1 ! dense_valid_o $end
$var wire 32 " dense_data_o [31:0] $end
$var wire 1 # cmp_ready_o $end
$var wire 1 $ bitmap_ready_o $end
$var parameter 32 % BLOCK_SIZE $end
$var parameter 32 & COUNT_W $end
$var parameter 32 ' DATA_SIZE $end
$var reg 4 ( bitmap_i [3:0] $end
$var reg 1 ) bitmap_valid_i $end
$var reg 1 * clk $end
$var reg 32 + cmp_data_i [31:0] $end
$var reg 1 , cmp_valid_i $end
$var reg 1 - dense_ready_i $end
$var reg 3 . nz_count_i [2:0] $end
$var reg 1 / rst $end
$scope module dut $end
$var wire 1 0 bitmap_fire $end
$var wire 4 1 bitmap_i [3:0] $end
$var wire 1 $ bitmap_ready_o $end
$var wire 1 ) bitmap_valid_i $end
$var wire 1 * clk $end
$var wire 32 2 cmp_data_i [31:0] $end
$var wire 1 # cmp_ready_o $end
$var wire 1 , cmp_valid_i $end
$var wire 1 3 dense_fire $end
$var wire 1 - dense_ready_i $end
$var wire 3 4 nz_count_i [2:0] $end
$var wire 1 / rst $end
$var wire 1 5 unused_nz_count $end
$var wire 1 ! dense_valid_o $end
$var wire 32 6 dense_data_o [31:0] $end
$var wire 1 7 current_is_nonzero $end
$var parameter 32 8 BLOCK_SIZE $end
$var parameter 32 9 COUNT_W $end
$var parameter 32 : DATA_SIZE $end
$var parameter 32 ; IDX_W $end
$var reg 4 < bitmap_q [3:0] $end
$var reg 2 = out_idx_q [1:0] $end
$var reg 1 > state_q $end
$upscope $end
$scope begin $unm_blk_15 $end
$var integer 32 ? bitmap_idx [31:0] $end
$var integer 32 @ cmp_idx [31:0] $end
$var integer 32 A cycles [31:0] $end
$var integer 32 B dense_idx [31:0] $end
$scope begin CHECK_DENSE $end
$upscope $end
$scope begin DRIVE_BITMAP $end
$upscope $end
$scope begin DRIVE_CMP $end
$upscope $end
$upscope $end
$scope task fail $end
$upscope $end
$upscope $end
$enddefinitions $end
$comment Show the parameter values. $end
$dumpall
b10 ;
b100000 :
b11 9
b100 8
b100000 '
b11 &
b100 %
$end
#0
$dumpvars
bx B
bx A
bx @
bx ?
0>
b0 =
b0 <
07
b0 6
05
b0 4
03
b0 2
b0 1
00
1/
b0 .
1-
0,
b0 +
0*
0)
b0 (
1$
0#
b0 "
0!
$end
#5000
1*
#10000
0*
#15000
1*
#20000
0*
#25000
1*
#30000
0*
#35000
0/
1*
#40000
0*
#45000
1*
#50000
0*
#55000
b0 A
b0 B
b0 @
b0 ?
1*
#60000
10
b1 ?
1)
15
b10 .
b10 4
b1010 (
b1010 1
0*
#65000
13
1!
00
0$
1>
b1010 <
b1 A
1*
#70000
0)
0*
#75000
03
0!
1#
17
b1 =
b10 A
b1 B
1*
#80000
13
1!
b101 "
b101 6
b1 @
1,
b101 +
b101 2
0*
#85000
b0 "
b0 6
0#
07
b10 =
b11 A
b10 B
1*
#90000
0,
0*
#95000
03
0!
b101 "
b101 6
1#
17
b11 =
b100 A
b11 B
1*
#100000
13
1!
b11111111111111111111111111111101 "
b11111111111111111111111111111101 6
b10 @
1,
b11111111111111111111111111111101 +
b11111111111111111111111111111101 2
0*
#105000
03
0!
b0 "
b0 6
0#
1$
0>
b0 <
07
b0 =
b101 A
b100 B
1*
#110000
10
b10 ?
1)
b1 .
b1 4
b1 (
b1 1
0,
0*
#115000
1#
b11111111111111111111111111111101 "
b11111111111111111111111111111101 6
00
0$
1>
17
b1 <
b110 A
1*
#120000
13
1!
b1001 "
b1001 6
b11 @
1,
b1001 +
b1001 2
05
b0 .
b0 4
b0 (
b0 1
0)
0*
#125000
b0 "
b0 6
0#
07
b1 =
b111 A
b101 B
1*
#130000
b0 +
b0 2
0,
0*
#135000
b10 =
b1000 A
b110 B
1*
#140000
0*
#145000
b11 =
b1001 A
b111 B
1*
#150000
0*
#155000
03
0!
1$
0>
b0 <
07
b0 =
b1010 A
b1000 B
1*
