wave/PE_wave.vcd
$version Generated by VerilatedVcd $end
$timescale 1ns $end
 $scope module TOP $end
  $var wire 1 q clk $end
  $var wire 1 r rst $end
  $var wire 1 s PE_en $end
  $var wire 10 t i_config [9:0] $end
  $var wire 32 u ifmap [31:0] $end
  $var wire 32 v filter [31:0] $end
  $var wire 32 w ipsum [31:0] $end
  $var wire 1 x ifmap_valid $end
  $var wire 1 y filter_valid $end
  $var wire 1 z ipsum_valid $end
  $var wire 1 { opsum_ready $end
  $var wire 32 | opsum [31:0] $end
  $var wire 1 } ifmap_ready $end
  $var wire 1 ~ filter_ready $end
  $var wire 1 !! ipsum_ready $end
  $var wire 1 "! opsum_valid $end
  $scope module PE $end
   $var wire 1 q clk $end
   $var wire 1 r rst $end
   $var wire 1 s PE_en $end
   $var wire 10 t i_config [9:0] $end
   $var wire 32 u ifmap [31:0] $end
   $var wire 32 v filter [31:0] $end
   $var wire 32 w ipsum [31:0] $end
   $var wire 1 x ifmap_valid $end
   $var wire 1 y filter_valid $end
   $var wire 1 z ipsum_valid $end
   $var wire 1 { opsum_ready $end
   $var wire 32 | opsum [31:0] $end
   $var wire 1 } ifmap_ready $end
   $var wire 1 ~ filter_ready $end
   $var wire 1 !! ipsum_ready $end
   $var wire 1 "! opsum_valid $end
   $var wire 2 $! FILTER_COL [1:0] $end
   $var wire 4 # cs [3:0] $end
   $var wire 4 #! ns [3:0] $end
   $var wire 4 %! IDLE [3:0] $end
   $var wire 4 &! REC_FIL [3:0] $end
   $var wire 4 '! REC_IFMAP [3:0] $end
   $var wire 4 (! COMPUTE [3:0] $end
   $var wire 4 )! ADD_IPSUM [3:0] $end
   $var wire 4 *! OUTPUT_OPSUM [3:0] $end
   $var wire 4 +! REUSE_IFMAP [3:0] $end
   $var wire 8 $ ifmap_spad[0] [7:0] $end
   $var wire 8 % ifmap_spad[1] [7:0] $end
   $var wire 8 & ifmap_spad[2] [7:0] $end
   $var wire 8 ' ifmap_spad[3] [7:0] $end
   $var wire 8 ( ifmap_spad[4] [7:0] $end
   $var wire 8 ) ifmap_spad[5] [7:0] $end
   $var wire 8 * ifmap_spad[6] [7:0] $end
   $var wire 8 + ifmap_spad[7] [7:0] $end
   $var wire 8 , ifmap_spad[8] [7:0] $end
   $var wire 8 - ifmap_spad[9] [7:0] $end
   $var wire 8 . ifmap_spad[10] [7:0] $end
   $var wire 8 / ifmap_spad[11] [7:0] $end
   $var wire 8 0 filter_spad[0] [7:0] $end
   $var wire 8 1 filter_spad[1] [7:0] $end
   $var wire 8 2 filter_spad[2] [7:0] $end
   $var wire 8 3 filter_spad[3] [7:0] $end
   $var wire 8 4 filter_spad[4] [7:0] $end
   $var wire 8 5 filter_spad[5] [7:0] $end
   $var wire 8 6 filter_spad[6] [7:0] $end
   $var wire 8 7 filter_spad[7] [7:0] $end
   $var wire 8 8 filter_spad[8] [7:0] $end
   $var wire 8 9 filter_spad[9] [7:0] $end
   $var wire 8 : filter_spad[10] [7:0] $end
   $var wire 8 ; filter_spad[11] [7:0] $end
   $var wire 8 < filter_spad[12] [7:0] $end
   $var wire 8 = filter_spad[13] [7:0] $end
   $var wire 8 > filter_spad[14] [7:0] $end
   $var wire 8 ? filter_spad[15] [7:0] $end
   $var wire 8 @ filter_spad[16] [7:0] $end
   $var wire 8 A filter_spad[17] [7:0] $end
   $var wire 8 B filter_spad[18] [7:0] $end
   $var wire 8 C filter_spad[19] [7:0] $end
   $var wire 8 D filter_spad[20] [7:0] $end
   $var wire 8 E filter_spad[21] [7:0] $end
   $var wire 8 F filter_spad[22] [7:0] $end
   $var wire 8 G filter_spad[23] [7:0] $end
   $var wire 8 H filter_spad[24] [7:0] $end
   $var wire 8 I filter_spad[25] [7:0] $end
   $var wire 8 J filter_spad[26] [7:0] $end
   $var wire 8 K filter_spad[27] [7:0] $end
   $var wire 8 L filter_spad[28] [7:0] $end
   $var wire 8 M filter_spad[29] [7:0] $end
   $var wire 8 N filter_spad[30] [7:0] $end
   $var wire 8 O filter_spad[31] [7:0] $end
   $var wire 8 P filter_spad[32] [7:0] $end
   $var wire 8 Q filter_spad[33] [7:0] $end
   $var wire 8 R filter_spad[34] [7:0] $end
   $var wire 8 S filter_spad[35] [7:0] $end
   $var wire 8 T filter_spad[36] [7:0] $end
   $var wire 8 U filter_spad[37] [7:0] $end
   $var wire 8 V filter_spad[38] [7:0] $end
   $var wire 8 W filter_spad[39] [7:0] $end
   $var wire 8 X filter_spad[40] [7:0] $end
   $var wire 8 Y filter_spad[41] [7:0] $end
   $var wire 8 Z filter_spad[42] [7:0] $end
   $var wire 8 [ filter_spad[43] [7:0] $end
   $var wire 8 \ filter_spad[44] [7:0] $end
   $var wire 8 ] filter_spad[45] [7:0] $end
   $var wire 8 ^ filter_spad[46] [7:0] $end
   $var wire 8 _ filter_spad[47] [7:0] $end
   $var wire 32 ` ofmap_spad[0] [31:0] $end
   $var wire 32 a ofmap_spad[1] [31:0] $end
   $var wire 32 b ofmap_spad[2] [31:0] $end
   $var wire 32 c ofmap_spad[3] [31:0] $end
   $var wire 6 d filter_count [5:0] $end
   $var wire 4 e ifmap_count [3:0] $end
   $var wire 2 f ofmap_count [1:0] $end
   $var wire 5 g ofmap_col [4:0] $end
   $var wire 5 h count_ofmap_col [4:0] $end
   $var wire 2 i ofmap_ch [1:0] $end
   $var wire 2 f count_ofmap_ch [1:0] $end
   $var wire 2 j input_ch [1:0] $end
   $var wire 2 k count_input_ch [1:0] $end
   $var wire 2 l count_filter_col [1:0] $end
   $var wire 16 m mul_res [15:0] $end
   $scope module unnamedblk1 $end
    $var wire 32 n i [31:0] $end
   $upscope $end
   $scope module unnamedblk2 $end
    $var wire 32 o i [31:0] $end
   $upscope $end
   $scope module unnamedblk3 $end
    $var wire 32 p i [31:0] $end
   $upscope $end
  $upscope $end
 $upscope $end
$enddefinitions $end


#1
b0000 #
b00000000 $
b00000000 %
b00000000 &
b00000000 '
b00000000 (
b00000000 )
b00000000 *
b00000000 +
b00000000 ,
b00000000 -
b00000000 .
b00000000 /
b00000000 0
b00000000 1
b00000000 2
b00000000 3
b00000000 4
b00000000 5
b00000000 6
b00000000 7
b00000000 8
b00000000 9
b00000000 :
b00000000 ;
b00000000 <
b00000000 =
b00000000 >
b00000000 ?
b00000000 @
b00000000 A
b00000000 B
b00000000 C
b00000000 D
b00000000 E
b00000000 F
b00000000 G
b00000000 H
b00000000 I
b00000000 J
b00000000 K
b00000000 L
b00000000 M
b00000000 N
b00000000 O
b00000000 P
b00000000 Q
b00000000 R
b00000000 S
b00000000 T
b00000000 U
b00000000 V
b00000000 W
b00000000 X
b00000000 Y
b00000000 Z
b00000000 [
b00000000 \
b00000000 ]
b00000000 ^
b00000000 _
b00000000000000000000000000000000 `
b00000000000000000000000000000000 a
b00000000000000000000000000000000 b
b00000000000000000000000000000000 c
b000000 d
b0000 e
b00 f
b00000 g
b00000 h
b00 i
b00 j
b00 k
b00 l
b0000000000000000 m
b00000000000000000000000000000000 n
b00000000000000000000000000000000 o
b00000000000000000000000000000000 p
1q
1r
0s
b0000000000 t
b00000000000000000000000000000000 u
b00000000000000000000000000000000 v
b00000000000000000000000000000000 w
0x
0y
0z
0{
b00000000000000000000000000000000 |
0}
0~
0!!
0"!
b0000 #!
b10 $!
b0000 %!
b0001 &!
b0010 '!
b0011 (!
b0100 )!
b0101 *!
b0110 +!
#2
0q
0r
#3
b0001 #
b11111 g
b11 i
b10 j
1q
1s
b0111111110 t
1~
b0001 #!
#4
0q
#5
1q
0s
b0000000000 t
#6
0q
#7
1q
#8
0q
#9
b11011101 0
b00110000 1
b01000000 2
b010000 d
b0100 e
b01 l
1q
b00000000010000000011000011011101 v
1y
#10
0q
#11
b10101111 @
b11111011 A
b01000110 B
b100000 d
b1000 e
b10 l
1q
b00000000010001101111101110101111 v
#12
0q
#13
b01001111 P
b11110101 Q
b01010000 R
b000100 d
b0000 e
b01 f
b00 l
1q
b00000000010100001111010101001111 v
#14
0q
#15
1q
b00000000000000000000000000000000 v
0y
#16
0q
#17
b10111101 4
b00010011 5
b10101111 6
b010100 d
b0100 e
b01 l
1q
b00000000101011110001001110111101 v
1y
#18
0q
#19
1q
b00000000000000000000000000000000 v
0y
#20
0q
#21
1q
#22
0q
#23
1q
#24
0q
#25
b10011100 D
b01001010 E
b10111101 F
b100100 d
b1000 e
b10 l
1q
b00000000101111010100101010011100 v
1y
#26
0q
#27
1q
b00000000000000000000000000000000 v
0y
#28
0q
#29
1q
#30
0q
#31
b10111011 T
b10001110 U
b11100100 V
b001000 d
b0000 e
b10 f
b00 l
1q
b00000000111001001000111010111011 v
1y
#32
0q
#33
b01001001 8
b01100000 9
b11001010 :
b011000 d
b0100 e
b01 l
1q
b00000000110010100110000001001001 v
#34
0q
#35
b11111011 H
b11111001 I
b10000101 J
b101000 d
b1000 e
b10 l
1q
b00000000100001011111100111111011 v
#36
0q
#37
1q
b00000000000000000000000000000000 v
0y
#38
0q
#39
b01110011 X
b10010000 Y
b00011111 Z
b001100 d
b0000 e
b11 f
b00 l
1q
b00000000000111111001000001110011 v
1y
#40
0q
#41
1q
b00000000000000000000000000000000 v
0y
#42
0q
#43
b01101011 <
b11011010 =
b11111101 >
b011100 d
b0100 e
b01 l
1q
b00000000111111011101101001101011 v
1y
#44
0q
#45
b00100011 L
b10101001 M
b10011111 N
b101100 d
b1000 e
b10 l
1q
b00000000100111111010100100100011 v
b0010 #!
#46
0q
#47
b0010 #
b01001000 \
b10000111 ]
b10100101 ^
b000000 d
b0000 e
b00 f
b00 l
1q
b00000000101001011000011101001000 v
1}
0~
#48
0q
#49
b11111110 $
b11010100 %
b010000 d
b0100 e
b01 l
1q
b10000000100000000101010001111110 u
1x
0y
#50
0q
#51
b11100010 )
b100000 d
b1000 e
b10 l
1q
b10000000100000000110001010000000 u
b0011 #!
#52
0q
#53
b0011 #
b11011110 ,
b01100100 -
b000000 d
b0000 e
b00 l
b0000000001000110 m
1q
b10000000100000001110010001011110 u
0}
#54
0q
#55
b00000000000000000000000001000110 `
b000001 d
b0001 e
b01 k
b1111011111000000 m
1q
0x
1z
b00000000000000000000000001000110 |
#56
0q
#57
b11111111111111111111100000000110 `
b000010 d
b0010 e
b10 k
b0000000000000000 m
1q
b11111111111111111111100000000110 |
#58
0q
#59
b010000 d
b0100 e
b00 k
b01 l
1q
#60
0q
#61
b010001 d
b0101 e
b01 k
b0000000010010110 m
1q
#62
0q
#63
b11111111111111111111100010011100 `
b010010 d
b0110 e
b10 k
b0000000000000000 m
1q
0z
b11111111111111111111100010011100 |
#64
0q
#65
b100000 d
b1000 e
b00 k
b10 l
b1111010110000010 m
1q
1z
#66
0q
#67
b11111111111111111110111000011110 `
b100001 d
b1001 e
b01 k
b1111101110110100 m
1q
b11111111111111111110111000011110 |
#68
0q
#69
b11111111111111111110100111010010 `
b100010 d
b1010 e
b10 k
b0000000000000000 m
1q
0z
b11111111111111111110100111010010 |
#70
0q
#71
b000100 d
b0000 e
b01 f
b00 k
b00 l
b0000000010000110 m
1q
1z
b00000000000000000000000000000000 |
#72
0q
#73
b00000000000000000000000010000110 a
b000101 d
b0001 e
b01 k
b1111110010111100 m
1q
0z
b00000000000000000000000010000110 |
#74
0q
#75
b11111111111111111111110101000010 a
b000110 d
b0010 e
b10 k
b0000000000000000 m
1q
1z
b11111111111111111111110101000010 |
#76
0q
#77
b010100 d
b0100 e
b00 k
b01 l
1q
#78
0q
#79
b010101 d
b0101 e
b01 k
b1111011101010100 m
1q
0z
#80
0q
#81
b11111111111111111111010010010110 a
b010110 d
b0110 e
b10 k
b0000000000000000 m
1q
b11111111111111111111010010010110 |
#82
0q
#83
b100100 d
b1000 e
b00 k
b10 l
b0000100100101010 m
1q
1z
#84
0q
#85
b11111111111111111111110111000000 a
b100101 d
b1001 e
b01 k
b1101001101111000 m
1q
0z
b11111111111111111111110111000000 |
#86
0q
#87
b11111111111111111101000100111000 a
b100110 d
b1010 e
b10 k
b0000000000000000 m
1q
1z
b11111111111111111101000100111000 |
#88
0q
#89
b001000 d
b0000 e
b10 f
b00 k
b00 l
b1111111101101110 m
1q
b00000000000000000000000000000000 |
#90
0q
#91
b11111111111111111111111101101110 b
b001001 d
b0001 e
b01 k
b1110111110000000 m
1q
b11111111111111111111111101101110 |
#92
0q
#93
b11111111111111111110111011101110 b
b001010 d
b0010 e
b10 k
b0000000000000000 m
1q
0z
b11111111111111111110111011101110 |
#94
0q
#95
b011000 d
b0100 e
b00 k
b01 l
1q
#96
0q
#97
b011001 d
b0101 e
b01 k
b0000000011010010 m
1q
#98
0q
#99
b11111111111111111110111111000000 b
b011010 d
b0110 e
b10 k
b0000000000000000 m
1q
1z
b11111111111111111110111111000000 |
#100
0q
#101
b101000 d
b1000 e
b00 k
b10 l
b1111000010111010 m
1q
0z
#102
0q
#103
b11111111111111111110000001111010 b
b101001 d
b1001 e
b01 k
b1101010001000000 m
1q
1z
b11111111111111111110000001111010 |
#104
0q
#105
b11111111111111111011010010111010 b
b101010 d
b1010 e
b10 k
b0000000000000000 m
1q
0z
b11111111111111111011010010111010 |
#106
0q
#107
b001100 d
b0000 e
b11 f
b00 k
b00 l
b1111111100101010 m
1q
1z
b00000000000000000000000000000000 |
#108
0q
#109
b11111111111111111111111100101010 c
b001101 d
b0001 e
b01 k
b0000011010001000 m
1q
0z
b11111111111111111111111100101010 |
#110
0q
#111
b00000000000000000000010110110010 c
b001110 d
b0010 e
b10 k
b0000000000000000 m
1q
1z
b00000000000000000000010110110010 |
#112
0q
#113
b011100 d
b0100 e
b00 k
b01 l
1q
0z
#114
0q
#115
b011101 d
b0101 e
b01 k
b0000101000110010 m
1q
1z
#116
0q
#117
b00000000000000000000111111100100 c
b011110 d
b0110 e
b10 k
b0000000000000000 m
1q
b00000000000000000000111111100100 |
#118
0q
#119
b101100 d
b1000 e
b00 k
b10 l
b1111011001110000 m
1q
#120
0q
#121
b00000000000000000000011001010100 c
b101101 d
b1001 e
b01 k
b1101000010111100 m
1q
b00000000000000000000011001010100 |
#122
0q
#123
b11111111111111111101011100010000 c
b101110 d
b1010 e
b10 k
b0000000000000000 m
1q
0z
b11111111111111111101011100010000 |
b0100 #!
#124
0q
#125
b0100 #
b000000 d
b0000 e
b00 f
b00 k
b00 l
b0000000001000110 m
1q
b11111111111111111110100111010010 |
1!!
#126
0q
#127
1q
#128
0q
#129
b00000000000000001101000000100111 `
b000100 d
b01 f
b0000000010000110 m
1q
b00000000000000001110011001010101 w
1z
b11111111111111111101000100111000 |
#130
0q
#131
1q
b00000000000000000000000000000000 w
0z
#132
0q
#133
b11111111111111110110100101000111 a
b001000 d
b10 f
b1111111101101110 m
1q
b11111111111111111001100000001111 w
1z
b11111111111111111011010010111010 |
#134
0q
#135
1q
b00000000000000000000000000000000 w
0z
#136
0q
#137
1q
#138
0q
#139
1q
#140
0q
#141
1q
#142
0q
#143
1q
#144
0q
#145
b00000000000000000100110001011110 b
b001100 d
b11 f
b1111111100101010 m
1q
b00000000000000001001011110100100 w
1z
b11111111111111111101011100010000 |
b0101 #!
#146
0q
#147
1q
b00000000000000000000000000000000 w
0z
b0100 #!
#148
0q
#149
b0101 #
b11111111111111111011100011000100 c
b000000 d
b00 f
b0000000001000110 m
1q
b11111111111111111110000110110100 w
1z
b00000000000000001101000000100111 |
0!!
1"!
b0101 #!
#150
0q
#151
b000100 d
b01 f
b0000000010000110 m
1q
0z
1{
b11111111111111110110100101000111 |
#152
0q
#153
b001000 d
b10 f
b1111111101101110 m
1q
b00000000000000000100110001011110 |
#154
0q
#155
b001100 d
b11 f
b1111111100101010 m
1q
b11111111111111111011100011000100 |
b0110 #!
#156
0q
#157
b0110 #
b000000 d
b00 f
b00001 h
b0000000001000110 m
1q
b00000000000000001101000000100111 |
1}
0"!
#158
0q
#159
b00000000000000000000000000000000 `
b00000000000000000000000000000000 a
b00000000000000000000000000000000 b
b00000000000000000000000000000000 c
b00000000000000000000000000000100 p
1q
b00000000000000000000000000000000 u
b00000000000000000000000000000000 |
#160
0q
#161
1q
#162
0q
#163
b0011 #
b00000000 $
b11100010 %
b11011110 (
b01100100 )
b00000000 ,
b00000000 -
b0000000000000000 m
1q
b10000000100000001000000010000000 u
1x
0}
b0011 #!
#164
0q
#165
b000001 d
b0001 e
b01 k
b1111101001100000 m
1q
b00000000000000000000000000000000 w
0x
1z
#166
0q
#167
b11111111111111111111101001100000 `
b000010 d
b0010 e
b10 k
b0000000000000000 m
1q
0z
b11111111111111111111101001100000 |
#168
0q
#169
b010000 d
b0100 e
b00 k
b01 l
b0000101011000010 m
1q
1z
#170
0q
#171
b00000000000000000000010100100010 `
b010001 d
b0101 e
b01 k
b1111111000001100 m
1q
b00000000000000000000010100100010 |
#172
0q
#173
b00000000000000000000001100101110 `
b010010 d
b0110 e
b10 k
b0000000000000000 m
1q
0z
b00000000000000000000001100101110 |
#174
0q
#175
b100000 d
b1000 e
b00 k
b10 l
1q
1z
#176
0q
#177
b100001 d
b1001 e
b01 k
1q
0z
#178
0q
#179
b100010 d
b1010 e
b10 k
1q
1z
#180
0q
#181
b000100 d
b0000 e
b01 f
b00 k
b00 l
1q
b00000000000000000000000000000000 |
#182
0q
#183
b000101 d
b0001 e
b01 k
b1111110111000110 m
1q
#184
0q
#185
b11111111111111111111110111000110 a
b000110 d
b0010 e
b10 k
b0000000000000000 m
1q
b11111111111111111111110111000110 |
#186
0q
#187
b010100 d
b0100 e
b00 k
b01 l
b0000110101001000 m
1q
#188
0q
#189
b00000000000000000000101100001110 a
b010101 d
b0101 e
b01 k
b0001110011101000 m
1q
0z
b00000000000000000000101100001110 |
#190
0q
#191
b00000000000000000010011111110110 a
b010110 d
b0110 e
b10 k
b0000000000000000 m
1q
b00000000000000000010011111110110 |
#192
0q
#193
b100100 d
b1000 e
b00 k
b10 l
1q
1z
#194
0q
#195
b100101 d
b1001 e
b01 k
1q
#196
0q
#197
b100110 d
b1010 e
b10 k
1q
0z
#198
0q
#199
b001000 d
b0000 e
b10 f
b00 k
b00 l
1q
1z
b00000000000000000000000000000000 |
#200
0q
#201
b001001 d
b0001 e
b01 k
b1111010011000000 m
1q
0z
#202
0q
#203
b11111111111111111111010011000000 b
b001010 d
b0010 e
b10 k
b0000000000000000 m
1q
b11111111111111111111010011000000 |
#204
0q
#205
b011000 d
b0100 e
b00 k
b01 l
b0000000010101010 m
1q
1z
#206
0q
#207
b11111111111111111111010101101010 b
b011001 d
b0101 e
b01 k
b1111110101000100 m
1q
b11111111111111111111010101101010 |
#208
0q
#209
b11111111111111111111001010101110 b
b011010 d
b0110 e
b10 k
b0000000000000000 m
1q
b11111111111111111111001010101110 |
#210
0q
#211
b101000 d
b1000 e
b00 k
b10 l
1q
0z
#212
0q
#213
b101001 d
b1001 e
b01 k
1q
#214
0q
#215
b101010 d
b1010 e
b10 k
1q
#216
0q
#217
b001100 d
b0000 e
b11 f
b00 k
b00 l
1q
b00000000000000000000000000000000 |
#218
0q
#219
b001101 d
b0001 e
b01 k
b0000010001110100 m
1q
#220
0q
#221
b00000000000000000000010001110100 c
b001110 d
b0010 e
b10 k
b0000000000000000 m
1q
b00000000000000000000010001110100 |
#222
0q
#223
b011100 d
b0100 e
b00 k
b01 l
b1111101101011010 m
1q
#224
0q
#225
b11111111111111111111111111001110 c
b011101 d
b0101 e
b01 k
b1101111000000100 m
1q
1z
b11111111111111111111111111001110 |
#226
0q
#227
b11111111111111111101110111010010 c
b011110 d
b0110 e
b10 k
b0000000000000000 m
1q
b11111111111111111101110111010010 |
#228
0q
#229
b101100 d
b1000 e
b00 k
b10 l
1q
#230
0q
#231
b101101 d
b1001 e
b01 k
1q
0z
#232
0q
#233
b101110 d
b1010 e
b10 k
1q
b0100 #!
#234
0q
#235
b0100 #
b000000 d
b0000 e
b00 f
b00 k
b00 l
1q
1z
b00000000000000000000001100101110 |
1!!
#236
0q
#237
1q
0z
#238
0q
#239
b00000000000000001111100110010011 `
b000100 d
b01 f
1q
b00000000000000001111011001100101 w
1z
b00000000000000000010011111110110 |
#240
0q
#241
1q
b00000000000000000000000000000000 w
0z
#242
0q
#243
b00000000000000000001110100100011 a
b001000 d
b10 f
1q
b11111111111111111111010100101101 w
1z
b11111111111111111111001010101110 |
#244
0q
#245
1q
b00000000000000000000000000000000 w
0z
#246
0q
#247
b00000000000000001011011011111100 b
b001100 d
b11 f
1q
b00000000000000001100010001001110 w
1z
b11111111111111111101110111010010 |
b0101 #!
#248
0q
#249
1q
b00000000000000000000000000000000 w
0z
b0100 #!
#250
0q
#251
1q
#252
0q
#253
b0101 #
b11111111111111110010011001001111 c
b000000 d
b00 f
1q
b11111111111111110100100001111101 w
1z
b00000000000000001111100110010011 |
0!!
1"!
b0101 #!
#254
0q
#255
b000100 d
b01 f
1q
0z
b00000000000000000001110100100011 |
#256
0q
#257
1q
0{
#258
0q
#259
1q
#260
0q
#261
b001000 d
b10 f
1q
1{
b00000000000000001011011011111100 |
#262
0q
#263
1q
0{
#264
0q
#265
1q
#266
0q
#267
1q
#268
0q
#269
b001100 d
b11 f
1q
1{
b11111111111111110010011001001111 |
b0110 #!
#270
0q
#271
b0110 #
b000000 d
b00 f
b00010 h
1q
b00000000000000001111100110010011 |
1}
0"!
#272
0q
#273
b0011 #
b11011110 $
b01100100 %
b00000000 (
b00000000 )
b00001101 ,
b00000000000000000000000000000000 `
b00000000000000000000000000000000 a
b00000000000000000000000000000000 b
b00000000000000000000000000000000 c
b0000010010100110 m
1q
b10000000100000001000000010001101 u
1x
b00000000000000000000000000000000 |
0}
b0011 #!
#274
0q
#275
b00000000000000000000010010100110 `
b000001 d
b0001 e
b01 k
b0001001011000000 m
1q
b00000000000000000000000000000000 w
0x
b00000000000000000000010010100110 |
#276
0q
#277
b00000000000000000001011101100110 `
b000010 d
b0010 e
b10 k
b0000000000000000 m
1q
b00000000000000000001011101100110 |
#278
0q
#279
b010000 d
b0100 e
b00 k
b01 l
1q
1z
#280
0q
#281
b010001 d
b0101 e
b01 k
1q
0z
#282
0q
#283
b010010 d
b0110 e
b10 k
1q
#284
0q
#285
b100000 d
b1000 e
b00 k
b10 l
b0000010000000011 m
1q
1z
#286
0q
#287
b00000000000000000001101101101001 `
b100001 d
b1001 e
b01 k
b0000000000000000 m
1q
b00000000000000000001101101101001 |
#288
0q
#289
b100010 d
b1010 e
b10 k
1q
0z
#290
0q
#291
b000100 d
b0000 e
b01 f
b00 k
b00 l
b0000100011100110 m
1q
b00000000000000000000000000000000 |
#292
0q
#293
b00000000000000000000100011100110 a
b000101 d
b0001 e
b01 k
b0000011101101100 m
1q
b00000000000000000000100011100110 |
#294
0q
#295
b00000000000000000001000001010010 a
b000110 d
b0010 e
b10 k
b0000000000000000 m
1q
b00000000000000000001000001010010 |
#296
0q
#297
b010100 d
b0100 e
b00 k
b01 l
1q
1z
#298
0q
#299
b010101 d
b0101 e
b01 k
1q
0z
#300
0q
#301
b010110 d
b0110 e
b10 k
1q
1z
#302
0q
#303
b100100 d
b1000 e
b00 k
b10 l
b1111110001111111 m
1q
#304
0q
#305
b00000000000000000000110011010001 a
b100101 d
b1001 e
b01 k
b0000000000000000 m
1q
b00000000000000000000110011010001 |
#306
0q
#307
b100110 d
b1010 e
b10 k
1q
0z
#308
0q
#309
b001000 d
b0000 e
b10 f
b00 k
b00 l
b1111011001001110 m
1q
b00000000000000000000000000000000 |
#310
0q
#311
b11111111111111111111011001001110 b
b001001 d
b0001 e
b01 k
b0010010110000000 m
1q
1z
b11111111111111111111011001001110 |
#312
0q
#313
b00000000000000000001101111001110 b
b001010 d
b0010 e
b10 k
b0000000000000000 m
1q
0z
b00000000000000000001101111001110 |
#314
0q
#315
b011000 d
b0100 e
b00 k
b01 l
1q
#316
0q
#317
b011001 d
b0101 e
b01 k
1q
#318
0q
#319
b011010 d
b0110 e
b10 k
1q
#320
0q
#321
b101000 d
b1000 e
b00 k
b10 l
b0000010111010111 m
1q
#322
0q
#323
b00000000000000000010000110100101 b
b101001 d
b1001 e
b01 k
b0000000000000000 m
1q
1z
b00000000000000000010000110100101 |
#324
0q
#325
b101010 d
b1010 e
b10 k
1q
0z
#326
0q
#327
b001100 d
b0000 e
b11 f
b00 k
b00 l
b1111000111001010 m
1q
b00000000000000000000000000000000 |
#328
0q
#329
b11111111111111111111000111001010 c
b001101 d
b0001 e
b01 k
b1111000100101000 m
1q
b11111111111111111111000111001010 |
#330
0q
#331
b11111111111111111110001011110010 c
b001110 d
b0010 e
b10 k
b0000000000000000 m
1q
b11111111111111111110001011110010 |
#332
0q
#333
b011100 d
b0100 e
b00 k
b01 l
1q
#334
0q
#335
b011101 d
b0101 e
b01 k
1q
1z
#336
0q
#337
b011110 d
b0110 e
b10 k
1q
0z
#338
0q
#339
b101100 d
b1000 e
b00 k
b10 l
b0000001110101000 m
1q
#340
0q
#341
b11111111111111111110011010011010 c
b101101 d
b1001 e
b01 k
b0000000000000000 m
1q
b11111111111111111110011010011010 |
#342
0q
#343
b101110 d
b1010 e
b10 k
1q
b0100 #!
#344
0q
#345
b0100 #
b000000 d
b0000 e
b00 f
b00 k
b00 l
b0000010010100110 m
1q
b00000000000000000001101101101001 |
1!!
#346
0q
#347
b11111111111111111111101111011010 `
b000100 d
b01 f
b0000100011100110 m
1q
b11111111111111111110000001110001 w
1z
b00000000000000000000110011010001 |
#348
0q
#349
b00000000000000001101011011001001 a
b001000 d
b10 f
b1111011001001110 m
1q
b00000000000000001100100111111000 w
b00000000000000000010000110100101 |
#350
0q
#351
1q
b00000000000000000000000000000000 w
0z
#352
0q
#353
1q
#354
0q
#355
b00000000000000000101011011000000 b
b001100 d
b11 f
b1111000111001010 m
1q
b00000000000000000011010100011011 w
1z
b11111111111111111110011010011010 |
b0101 #!
#356
0q
#357
b0101 #
b11111111111111110100111110000101 c
b000000 d
b00 f
b0000010010100110 m
1q
b11111111111111110110100011101011 w
b11111111111111111111101111011010 |
0!!
1"!
#358
0q
#359
b000100 d
b01 f
b0000100011100110 m
1q
0z
b00000000000000001101011011001001 |
#360
0q
#361
b001000 d
b10 f
b1111011001001110 m
1q
b00000000000000000101011011000000 |
#362
0q
#363
1q
0{
#364
0q
#365
b001100 d
b11 f
b1111000111001010 m
1q
1{
b11111111111111110100111110000101 |
b0110 #!
#366
0q
#367
1q
0{
b0101 #!
#368
0q
#369
1q
#370
0q
#371
b0110 #
b000000 d
b00 f
b00011 h
b0000010010100110 m
1q
1{
b11111111111111111111101111011010 |
1}
0"!
b0110 #!
#372
0q
#373
b0011 #
b00000000 $
b00000000 %
b00001101 (
b00000000 ,
b00000000000000000000000000000000 `
b00000000000000000000000000000000 a
b00000000000000000000000000000000 b
b00000000000000000000000000000000 c
b0000000000000000 m
1q
b10000000100000001000000010000000 u
1x
b00000000000000000000000000000000 |
0}
b0011 #!
#374
0q
#375
b000001 d
b0001 e
b01 k
1q
b00000000000000000000000000000000 w
0x
1z
#376
0q
#377
b000010 d
b0010 e
b10 k
1q
#378
0q
#379
b010000 d
b0100 e
b00 k
b01 l
b1111101111100011 m
1q
0z
#380
0q
#381
b11111111111111111111101111100011 `
b010001 d
b0101 e
b01 k
b0000000000000000 m
1q
1z
b11111111111111111111101111100011 |
#382
0q
#383
b010010 d
b0110 e
b10 k
1q
#384
0q
#385
b100000 d
b1000 e
b00 k
b10 l
1q
#386
0q
#387
b100001 d
b1001 e
b01 k
1q
0z
#388
0q
#389
b100010 d
b1010 e
b10 k
1q
#390
0q
#391
b000100 d
b0000 e
b01 f
b00 k
b00 l
1q
1z
b00000000000000000000000000000000 |
#392
0q
#393
b000101 d
b0001 e
b01 k
1q
0z
#394
0q
#395
b000110 d
b0010 e
b10 k
1q
#396
0q
#397
b010100 d
b0100 e
b00 k
b01 l
b1111101011101100 m
1q
#398
0q
#399
b11111111111111111111101011101100 a
b010101 d
b0101 e
b01 k
b0000000000000000 m
1q
b11111111111111111111101011101100 |
#400
0q
#401
b010110 d
b0110 e
b10 k
1q
#402
0q
#403
b100100 d
b1000 e
b00 k
b10 l
1q
#404
0q
#405
b100101 d
b1001 e
b01 k
1q
#406
0q
#407
b100110 d
b1010 e
b10 k
1q
#408
0q
#409
b001000 d
b0000 e
b10 f
b00 k
b00 l
1q
b00000000000000000000000000000000 |
#410
0q
#411
b001001 d
b0001 e
b01 k
1q
1z
#412
0q
#413
b001010 d
b0010 e
b10 k
1q
#414
0q
#415
b011000 d
b0100 e
b00 k
b01 l
b1111111110111111 m
1q
0z
#416
0q
#417
b11111111111111111111111110111111 b
b011001 d
b0101 e
b01 k
b0000000000000000 m
1q
1z
b11111111111111111111111110111111 |
#418
0q
#419
b011010 d
b0110 e
b10 k
1q
0z
#420
0q
#421
b101000 d
b1000 e
b00 k
b10 l
1q
1z
#422
0q
#423
b101001 d
b1001 e
b01 k
1q
0z
#424
0q
#425
b101010 d
b1010 e
b10 k
1q
#426
0q
#427
b001100 d
b0000 e
b11 f
b00 k
b00 l
1q
b00000000000000000000000000000000 |
#428
0q
#429
b001101 d
b0001 e
b01 k
1q
1z
#430
0q
#431
b001110 d
b0010 e
b10 k
1q
#432
0q
#433
b011100 d
b0100 e
b00 k
b01 l
b0000000111000111 m
1q
0z
#434
0q
#435
b00000000000000000000000111000111 c
b011101 d
b0101 e
b01 k
b0000000000000000 m
1q
b00000000000000000000000111000111 |
#436
0q
#437
b011110 d
b0110 e
b10 k
1q
#438
0q
#439
b101100 d
b1000 e
b00 k
b10 l
1q
1z
#440
0q
#441
b101101 d
b1001 e
b01 k
1q
0z
#442
0q
#443
b101110 d
b1010 e
b10 k
1q
1z
b0100 #!
#444
0q
#445
b0100 #
b000000 d
b0000 e
b00 f
b00 k
b00 l
1q
b11111111111111111111101111100011 |
1!!
